module gitea.com/ruijc/storage

go 1.21

require (
	gitea.com/ruijc/app v0.0.9
	github.com/goexl/gox v0.3.8
	github.com/goexl/http v0.0.6
	github.com/goexl/log v0.0.5
	github.com/pangum/grpc v0.3.5
	github.com/pangum/pangu v0.3.9
	gitlab.com/ruijc/storage v0.1.2
	google.golang.org/protobuf v1.31.0
)

require (
	github.com/cpuguy83/go-md2man/v2 v2.0.3 // indirect
	github.com/drone/envsubst v1.0.3 // indirect
	github.com/fsnotify/fsnotify v1.6.0 // indirect
	github.com/gabriel-vasile/mimetype v1.4.3 // indirect
	github.com/go-playground/locales v0.14.1 // indirect
	github.com/go-playground/universal-translator v0.18.1 // indirect
	github.com/go-playground/validator/v10 v10.15.5 // indirect
	github.com/go-resty/resty/v2 v2.9.1 // indirect
	github.com/goexl/baozheng v0.0.1 // indirect
	github.com/goexl/env v0.0.2 // indirect
	github.com/goexl/exc v0.0.5 // indirect
	github.com/goexl/gfx v0.1.7 // indirect
	github.com/goexl/hud v0.0.7 // indirect
	github.com/goexl/mengpo v0.2.4 // indirect
	github.com/goexl/xiren v0.0.5 // indirect
	github.com/golang/protobuf v1.5.3 // indirect
	github.com/google/uuid v1.3.1 // indirect
	github.com/grpc-ecosystem/grpc-gateway/v2 v2.18.0 // indirect
	github.com/leodido/go-urn v1.2.4 // indirect
	github.com/mattn/go-runewidth v0.0.9 // indirect
	github.com/olekukonko/tablewriter v0.0.5 // indirect
	github.com/pelletier/go-toml v1.9.5 // indirect
	github.com/rs/xid v1.5.0 // indirect
	github.com/russross/blackfriday/v2 v2.1.0 // indirect
	github.com/storezhang/dig v0.0.1 // indirect
	github.com/urfave/cli/v2 v2.25.7 // indirect
	github.com/xrash/smetrics v0.0.0-20201216005158-039620a65673 // indirect
	github.com/zs5460/art v0.3.0 // indirect
	gitlab.com/ruijc/app v0.0.3 // indirect
	golang.org/x/crypto v0.14.0 // indirect
	golang.org/x/net v0.17.0 // indirect
	golang.org/x/sys v0.13.0 // indirect
	golang.org/x/text v0.13.0 // indirect
	google.golang.org/genproto/googleapis/api v0.0.0-20230822172742-b8732ec3820d // indirect
	google.golang.org/genproto/googleapis/rpc v0.0.0-20230822172742-b8732ec3820d // indirect
	google.golang.org/grpc v1.59.0 // indirect
	gopkg.in/yaml.v3 v3.0.1 // indirect
)
